-152 -32 -80 704
-88 -8 -128 32 -120 576
-32 168 -120 -56 -48 528
-128 -8 840
48 -104 824
-152 -16 -144 656
-152 -40 -64 -24 -40 -32 -160 424
-56 24 -32 -8 32 -32 760
-24 -24 -16 -8 -56 -136 -40 -128 -24 -8 -128 312
24 -32 -80 -24 -144 72 -40 -88 424
40 -64 872
72 -32 872
-112 -40 824
-16 8 -136 -112 -24 -120 -24 496
-152 -8 -120 -24 -80 -24 -8 -32 -40 432
